{
    "port": 8002,
    "mongoose": {
        "uri": "mongodb://localhost/ezstudy",
        "options": {
            "useMongoClient": true,
            "keepAlive": 1
        }
    },
    "session": {
        "secret": "KillerIsJim",
        "key": "sid",
        "cookie": {
            "path": "/",
            "httpOnly": true,
            "maxAge": null
        }
    }
}